WEBVTT

00:00:12,000 --> 00:00:15,000
What brings you to the land

00:00:18,500 --> 00:00:20,500
I'm searching for someone.

00:00:36,500 --> 00:00:39,000
A dangerous quest for a lone hunter.

00:00:41,500 --> 00:00:44,000
I've been alone for as long